…
+   na = ""
+ )
> 
> log_msg("Final dataset saved to: ", file.path(CONFIG$output_dir, CONFIG$output_dataset))
[2026-05-01 17:18:35] Final dataset saved to: /mnt/analysis-ready-dataset.csv
> log_msg("Final RDS saved to: ", file.path(CONFIG$output_dir, CONFIG$output_rds))
[2026-05-01 17:18:35] Final RDS saved to: /mnt/analysis-ready-dataset.rds
> log_msg("Coverage report saved to: ", file.path(CONFIG$output_dir, CONFIG$coverage_report))
[2026-05-01 17:18:35] Coverage report saved to: /mnt/coverage_report.csv
> 
> log_msg("Final dataset dimensions: ", nrow(final_dataset), " rows x ", ncol(final_dataset), " columns")
[2026-05-01 17:18:35] Final dataset dimensions: 36300 rows x 1753 columns
> 
> print(coverage_report)
# A tibble: 23 x 9
   dataset    original_total_co… extracted_total_co… coverage_percent has_paramcd has_aval n_paramcd_extra…
   <chr>                   <int>               <int>            <dbl> <lgl>       <lgl>               <int>
 1 ADAE_SAS7…                123                 122             99.2 FALSE       FALSE                   0
 2 ADBDC_SAS…                 43                 104            242.  TRUE        TRUE                   65
 3 ADCHEM_SA…                 93                 107            115.  TRUE        TRUE                   19
 4 ADCM_SAS7…                 36                  35             97.2 TRUE        FALSE                   0
 5 ADCORT_SA…                 42                  41             97.6 FALSE       FALSE                   0
 6 ADDEATH_S…                 56                  55             98.2 FALSE       FALSE                   0
 7 ADDS_SAS7…                 72                  71             98.6 FALSE       FALSE                   0
 8 ADDV_SAS7…                 56                  55             98.2 FALSE       FALSE                   0
 9 ADEX_SAS7…                 91                  88             96.7 FALSE       FALSE                   0
10 ADHEMA_SA…                 93                 128            138.  TRUE        TRUE                   41
# … with 13 more rows, and 2 more variables: paramcd_extracted <chr>, is_100_percent_coverage <lgl>
